\relax 
\@writefile{toc}{\contentsline {section}{\numberline {1}Introduction}{2}}
\@writefile{toc}{\contentsline {section}{\numberline {2}Related work}{2}}
\@writefile{toc}{\contentsline {section}{\numberline {3}Traceparts dataset}{2}}
\@writefile{toc}{\contentsline {section}{\numberline {4}Data preprocessing}{2}}
\@writefile{toc}{\contentsline {subsection}{\numberline {4.1}Handling imbalanced datasets}{2}}
\@writefile{toc}{\contentsline {subsubsection}{\numberline {4.1.1}Sampling methods}{2}}
\@writefile{toc}{\contentsline {subsection}{\numberline {4.2}Handling mislabelled data}{3}}
\@writefile{toc}{\contentsline {section}{\numberline {5}Methods}{3}}
\@writefile{toc}{\contentsline {subsection}{\numberline {5.1}k Nearest Neighbours}{3}}
\@writefile{toc}{\contentsline {subsection}{\numberline {5.2}Random Forests}{3}}
\@writefile{toc}{\contentsline {subsection}{\numberline {5.3}Neural Network Classifier}{3}}
\@writefile{toc}{\contentsline {subsection}{\numberline {5.4}Metric learning with deep learning}{3}}
\@writefile{toc}{\contentsline {subsection}{\numberline {5.5}Deep Convolutional Neural Network Classifier}{3}}
\@writefile{toc}{\contentsline {subsection}{\numberline {5.6}Evaluation measures}{3}}
\@writefile{toc}{\contentsline {section}{\numberline {6}Results and analysis}{4}}
\@writefile{toc}{\contentsline {subsection}{\numberline {6.1}Classification results on full dataset}{4}}
\@writefile{toc}{\contentsline {subsection}{\numberline {6.2}Classification results on partial dataset}{4}}
\@writefile{toc}{\contentsline {subsection}{\numberline {6.3}Object recognition through a mobile application}{4}}
\bibcite{Figueredo:2009dg}{Figueredo and Wolf, 2009}
\@writefile{toc}{\contentsline {section}{\numberline {7}Conclusion}{5}}
