\contentsline {section}{\numberline {1}Introduction}{2}
\contentsline {subsection}{\numberline {1.1}Subsection 1}{2}
\contentsline {subsection}{\numberline {1.2}Subsection 2}{2}
\contentsline {subsubsection}{\numberline {1.2.1}Subsubsection 1}{2}
\contentsline {subsubsection}{\numberline {1.2.2}Subsubsection 2}{3}
\contentsline {section}{\numberline {2}Content Section}{3}
\contentsline {subsection}{\numberline {2.1}Subsection 1}{3}
\contentsline {subsubsection}{\numberline {2.1.1}Subsubsection 1}{3}
\contentsline {subsubsection}{\numberline {2.1.2}Subsubsection 2}{4}
\contentsline {subsubsection}{\numberline {2.1.3}Subsubsection 3}{4}
\contentsline {section}{\numberline {3}Conclusion}{5}
