\relax 
\providecommand\hyper@newdestlabel[2]{}
\providecommand\HyperFirstAtBeginDocument{\AtBeginDocument}
\HyperFirstAtBeginDocument{\ifx\hyper@anchor\@undefined
\global\let\oldcontentsline\contentsline
\gdef\contentsline#1#2#3#4{\oldcontentsline{#1}{#2}{#3}}
\global\let\oldnewlabel\newlabel
\gdef\newlabel#1#2{\newlabelxx{#1}#2}
\gdef\newlabelxx#1#2#3#4#5#6{\oldnewlabel{#1}{{#2}{#3}}}
\AtEndDocument{\ifx\hyper@anchor\@undefined
\let\contentsline\oldcontentsline
\let\newlabel\oldnewlabel
\fi}
\fi}
\global\let\hyper@last\relax 
\gdef\HyperFirstAtBeginDocument#1{#1}
\providecommand\HyField@AuxAddToFields[1]{}
\providecommand\HyField@AuxAddToCoFields[2]{}
\@writefile{toc}{\contentsline {part}{I\hspace  {1em}Internship background and company's organization}{6}{part.1}}
\citation{annualreport}
\citation{annualreport}
\@writefile{toc}{\contentsline {section}{\numberline {1}Dassault Syst\IeC {\`e}mes}{7}{section.1}}
\@writefile{toc}{\contentsline {section}{\numberline {2}Company's organization}{7}{section.2}}
\@writefile{lof}{\contentsline {figure}{\numberline {1}{\ignorespaces The organization of 3DEXPERIENCE Apps \cite  {annualreport}.\relax }}{7}{figure.caption.3}}
\@writefile{toc}{\contentsline {section}{\numberline {3}Goals and Specifications}{8}{section.3}}
\newlabel{goals}{{3}{8}{Goals and Specifications}{section.3}{}}
\@writefile{toc}{\contentsline {part}{II\hspace  {1em}Presentation and analysis of the internship}{9}{part.2}}
\citation{tombari2010unique}
\@writefile{toc}{\contentsline {section}{\numberline {1}Introduction}{10}{section.1}}
\@writefile{toc}{\contentsline {section}{\numberline {2}Related work on 3D Object classification}{10}{section.2}}
\newlabel{related}{{2}{10}{Related work on 3D Object classification}{section.2}{}}
\citation{han2018seqviews2seqlabels}
\citation{qi2017pointnet}
\citation{qi2017pointnet++}
\citation{qi2017pointnet++}
\citation{su2015multi}
\citation{deng2009imagenet}
\citation{su2015multi}
\citation{kanezaki2016rotationnet}
\@writefile{toc}{\contentsline {subsection}{\numberline {2.1}Point-clouds}{11}{subsection.2.1}}
\@writefile{toc}{\contentsline {subsection}{\numberline {2.2}Multi-view images}{11}{subsection.2.2}}
\citation{maturana2015voxnet}
\citation{wu2016learning}
\citation{wang2017cnn}
\citation{kanezaki2016rotationnet}
\citation{sfikas2018ensemble}
\citation{brock2016generative}
\citation{su2018deeper}
\citation{wang2017dominant}
\citation{han2018seqviews2seqlabels}
\citation{li2018so}
\citation{klokov2017escape}
\citation{ben20173d}
\citation{qi2016volumetric}
\citation{dominguez2018general}
\citation{shen2018mining}
\citation{hegde2016fusionnet}
\citation{sfikas2017exploiting}
\citation{johns2016pairwise}
\citation{ren20173d}
\citation{zaheer2017deep}
\citation{su2015multi}
\citation{ravanbakhsh2016deep}
\citation{zanuttigh2017deep}
\citation{qi2017pointnet}
\@writefile{toc}{\contentsline {subsection}{\numberline {2.3}Volumetric representations}{12}{subsection.2.3}}
\@writefile{toc}{\contentsline {subsection}{\numberline {2.4}Handcrafted signatures}{12}{subsection.2.4}}
\@writefile{toc}{\contentsline {subsection}{\numberline {2.5}Performances on a benchmark dataset}{12}{subsection.2.5}}
\@writefile{lot}{\contentsline {table}{\numberline {2.1}{\ignorespaces Classification accuracy of different algorithms on ModelNet dataset.\relax }}{13}{table.caption.4}}
\providecommand*\caption@xref[2]{\@setref\relax\@undefined{#1}}
\newlabel{leaderboard}{{2.1}{13}{Classification accuracy of different algorithms on ModelNet dataset.\relax }{table.caption.4}{}}
\@writefile{toc}{\contentsline {section}{\numberline {3}Traceparts dataset}{13}{section.3}}
\newlabel{dataset}{{3}{13}{Traceparts dataset}{section.3}{}}
\@writefile{toc}{\contentsline {subsection}{\numberline {3.1}Overview}{13}{subsection.3.1}}
\@writefile{lof}{\contentsline {figure}{\numberline {2}{\ignorespaces Illustrative figure of the tree structure of the categories in the dataset. Our goal is to predict its lower level (and more informative) category. For example, the class A could represent "Fasteners"; A1, "Bolt, screws, studs"; and A11, "Wood screws". We call level 3 the lower level in the three, level 2 and level 1 the other two above. Note that, some branches could end at level 2 as B2.\relax }}{14}{figure.caption.5}}
\@writefile{toc}{\contentsline {subsection}{\numberline {3.2}Issues in the dataset}{14}{subsection.3.2}}
\@writefile{lof}{\contentsline {figure}{\numberline {3}{\ignorespaces Word cloud representing the training set and frequency of the 98 categories. The word size is proportional to the logarithm of the number of instances.\relax }}{15}{figure.caption.6}}
\@writefile{lof}{\contentsline {figure}{\numberline {4}{\ignorespaces Number of objects per class. While some classes have more than hundred thousand objects, others are limited to less than 1000.\relax }}{15}{figure.caption.7}}
\@writefile{lof}{\contentsline {figure}{\numberline {5}{\ignorespaces Examples of models from TP 20, TP45 and TP 98, respectively, from left to right.\relax }}{16}{figure.caption.8}}
\newlabel{dataset_samples}{{5}{16}{Examples of models from TP 20, TP45 and TP 98, respectively, from left to right.\relax }{figure.caption.8}{}}
\@writefile{toc}{\contentsline {section}{\numberline {4}Data preprocessing}{16}{section.4}}
\newlabel{data}{{4}{16}{Data preprocessing}{section.4}{}}
\newlabel{preprocessing}{{4}{16}{Data preprocessing}{section.4}{}}
\@writefile{toc}{\contentsline {subsection}{\numberline {4.1}Normalization}{16}{subsection.4.1}}
\newlabel{standard}{{1}{17}{Normalization}{equation.4.1}{}}
\@writefile{lof}{\contentsline {figure}{\numberline {6}{\ignorespaces Histogram of the biggest dimension of the 416 signature in a reduced training set.\relax }}{17}{figure.caption.9}}
\newlabel{before_standard2}{{6}{17}{Histogram of the biggest dimension of the 416 signature in a reduced training set.\relax }{figure.caption.9}{}}
\@writefile{lof}{\contentsline {figure}{\numberline {7}{\ignorespaces Histogram of the biggest dimension of the 416 signature in a reduced training set after standardization.\relax }}{17}{figure.caption.10}}
\newlabel{after_standard2}{{7}{17}{Histogram of the biggest dimension of the 416 signature in a reduced training set after standardization.\relax }{figure.caption.10}{}}
\@writefile{lof}{\contentsline {figure}{\numberline {8}{\ignorespaces The the distribution of the 416 dimensions of the training set before standardization.\relax }}{18}{figure.caption.11}}
\newlabel{before_standard}{{8}{18}{The the distribution of the 416 dimensions of the training set before standardization.\relax }{figure.caption.11}{}}
\@writefile{lof}{\contentsline {figure}{\numberline {9}{\ignorespaces The distribution of the 416 dimensions of the training set after standardization.\relax }}{18}{figure.caption.12}}
\newlabel{after_standard}{{9}{18}{The distribution of the 416 dimensions of the training set after standardization.\relax }{figure.caption.12}{}}
\@writefile{toc}{\contentsline {subsection}{\numberline {4.2}Handling the imbalanced dataset}{18}{subsection.4.2}}
\citation{chawla2002smote}
\citation{wong2016understanding}
\citation{tomek1976two}
\@writefile{toc}{\contentsline {subsubsection}{\numberline {4.2.1}Sampling methods}{19}{subsubsection.4.2.1}}
\@writefile{lof}{\contentsline {figure}{\numberline {10}{\ignorespaces Dataset after applying k-medoids clustering. All classes with more than 400 objects were under-sampled to 400 objects.\relax }}{19}{figure.caption.13}}
\newlabel{after_balancing}{{10}{19}{Dataset after applying k-medoids clustering. All classes with more than 400 objects were under-sampled to 400 objects.\relax }{figure.caption.13}{}}
\citation{muhlenbach2004identifying}
\@writefile{toc}{\contentsline {subsection}{\numberline {4.3}Handling mislabeled data}{20}{subsection.4.3}}
\@writefile{toc}{\contentsline {section}{\numberline {5}Classification methods}{20}{section.5}}
\newlabel{methods}{{5}{20}{Classification methods}{section.5}{}}
\@writefile{toc}{\contentsline {subsection}{\numberline {5.1}Evaluation measures}{20}{subsection.5.1}}
\@writefile{toc}{\contentsline {subsection}{\numberline {5.2}k Nearest Neighbors}{20}{subsection.5.2}}
\citation{hornik1991approximation}
\citation{krogh1992simple}
\citation{srivastava2014dropout}
\citation{ioffe2015batch}
\citation{goodfellow2016deep}
\citation{hoffer2015deep}
\citation{schroff2015facenet}
\@writefile{toc}{\contentsline {subsection}{\numberline {5.3}Random Forests and gradient boosting trees}{21}{subsection.5.3}}
\@writefile{toc}{\contentsline {subsection}{\numberline {5.4}Neural Network Classifier}{21}{subsection.5.4}}
\@writefile{toc}{\contentsline {subsection}{\numberline {5.5}Metric learning with deep learning}{21}{subsection.5.5}}
\citation{krizhevsky2012imagenet}
\citation{kanezaki2016rotationnet}
\citation{goodfellow2016deep}
\@writefile{toc}{\contentsline {subsection}{\numberline {5.6}Convolutional Neural Network}{22}{subsection.5.6}}
\@writefile{toc}{\contentsline {subsection}{\numberline {5.7}Overview}{22}{subsection.5.7}}
\@writefile{lof}{\contentsline {figure}{\numberline {11}{\ignorespaces Overview of the methods and their input features: k nearest neighbors (KNN), random forests (RF), boosted trees (BF), neural networks (NN) and convolutional neural networks (CNN).\relax }}{22}{figure.caption.14}}
\newlabel{overview_methods}{{11}{22}{Overview of the methods and their input features: k nearest neighbors (KNN), random forests (RF), boosted trees (BF), neural networks (NN) and convolutional neural networks (CNN).\relax }{figure.caption.14}{}}
\@writefile{toc}{\contentsline {section}{\numberline {6}Results and analysis}{23}{section.6}}
\newlabel{results}{{6}{23}{Results and analysis}{section.6}{}}
\@writefile{lot}{\contentsline {table}{\numberline {6.1}{\ignorespaces Classification performance of 1-NN with the old and the new signatures\relax }}{23}{table.caption.15}}
\newlabel{oldvsnew}{{6.1}{23}{Classification performance of 1-NN with the old and the new signatures\relax }{table.caption.15}{}}
\@writefile{toc}{\contentsline {subsection}{\numberline {6.1}Classification results on full dataset (TP98)}{23}{subsection.6.1}}
\@writefile{lot}{\contentsline {table}{\numberline {6.2}{\ignorespaces Classification performance of different classifiers on the full dataset\relax }}{24}{table.caption.16}}
\newlabel{results_methods}{{6.2}{24}{Classification performance of different classifiers on the full dataset\relax }{table.caption.16}{}}
\@writefile{lof}{\contentsline {figure}{\numberline {12}{\ignorespaces Donut Chart representing how elements of each class were classified by the algorithm. Note the chart in the upper left corner, the class bearings accessories was misclassified with many other classes because it's test dataset is composed of all the kinds of objects, maybe due to its general purpose name.\relax }}{25}{figure.caption.17}}
\newlabel{fig:donut}{{12}{25}{Donut Chart representing how elements of each class were classified by the algorithm. Note the chart in the upper left corner, the class bearings accessories was misclassified with many other classes because it's test dataset is composed of all the kinds of objects, maybe due to its general purpose name.\relax }{figure.caption.17}{}}
\@writefile{lof}{\contentsline {figure}{\numberline {13}{\ignorespaces Examples of parts labeled as bearing accessories (test dataset). It's clear there's no common sense on what the category if composed of.\relax }}{26}{figure.caption.18}}
\newlabel{fig:accessories}{{13}{26}{Examples of parts labeled as bearing accessories (test dataset). It's clear there's no common sense on what the category if composed of.\relax }{figure.caption.18}{}}
\@writefile{lof}{\contentsline {figure}{\numberline {14}{\ignorespaces Classification error (lower is better). The stacked barplot shows how far away in the tree the wrong category is from the good one. Orange means far in the tree, dark blue means they have the same node at level 1 and light blue means the categories have the same node at level 2 and are semantically close.\relax }}{26}{figure.caption.19}}
\newlabel{fig:error_analysis_barplot}{{14}{26}{Classification error (lower is better). The stacked barplot shows how far away in the tree the wrong category is from the good one. Orange means far in the tree, dark blue means they have the same node at level 1 and light blue means the categories have the same node at level 2 and are semantically close.\relax }{figure.caption.19}{}}
\@writefile{lof}{\contentsline {figure}{\numberline {15}{\ignorespaces Confusion matrix for a signature-based neural network on TP98. Blank rows indicate classes that were not present in the test dataset.\relax }}{27}{figure.caption.20}}
\newlabel{fig:cnf_matrix98}{{15}{27}{Confusion matrix for a signature-based neural network on TP98. Blank rows indicate classes that were not present in the test dataset.\relax }{figure.caption.20}{}}
\@writefile{toc}{\contentsline {subsection}{\numberline {6.2}Classification results with TP45 and TP20}{27}{subsection.6.2}}
\@writefile{lot}{\contentsline {table}{\numberline {6.3}{\ignorespaces Classification performance of different classifiers on TP20\relax }}{27}{table.caption.21}}
\newlabel{results_tp20}{{6.3}{27}{Classification performance of different classifiers on TP20\relax }{table.caption.21}{}}
\@writefile{lot}{\contentsline {table}{\numberline {6.4}{\ignorespaces Classification performance of different classifiers on TP45\relax }}{28}{table.caption.22}}
\newlabel{results_tp45}{{6.4}{28}{Classification performance of different classifiers on TP45\relax }{table.caption.22}{}}
\@writefile{lof}{\contentsline {figure}{\numberline {16}{\ignorespaces Confusion matrix for RotationNet on TP45.\relax }}{28}{figure.caption.23}}
\newlabel{fig:cnf_matrix45}{{16}{28}{Confusion matrix for RotationNet on TP45.\relax }{figure.caption.23}{}}
\@writefile{lof}{\contentsline {figure}{\numberline {17}{\ignorespaces The distribution of false positives and true positives classification probability for the TP45 dataset, using RotationNet. The frequency represents the frequency within the testing set. False positives often have lower classification probabilities than true positives.\relax }}{29}{figure.caption.24}}
\newlabel{threshold}{{17}{29}{The distribution of false positives and true positives classification probability for the TP45 dataset, using RotationNet. The frequency represents the frequency within the testing set. False positives often have lower classification probabilities than true positives.\relax }{figure.caption.24}{}}
\@writefile{lof}{\contentsline {figure}{\numberline {18}{\ignorespaces This figure aggregates four factors: the number of classes and the percentage of the dataset being classified, the precision and the probability threshold. All objects under the threshold are rejected by the algorithm, requiring manual classification. A threshold of 0.4 can boost precision from 82.5\% to 90\%, classifying 92\% of the validation set and almost all the classes. Note that as the threshold value approximates 1 (yellow), the number of classes being automatically classified (vertical axis) reduces in steps, meaning that some classes show particularly low probabilities.\relax }}{29}{figure.caption.25}}
\newlabel{threshold_size}{{18}{29}{This figure aggregates four factors: the number of classes and the percentage of the dataset being classified, the precision and the probability threshold. All objects under the threshold are rejected by the algorithm, requiring manual classification. A threshold of 0.4 can boost precision from 82.5\% to 90\%, classifying 92\% of the validation set and almost all the classes. Note that as the threshold value approximates 1 (yellow), the number of classes being automatically classified (vertical axis) reduces in steps, meaning that some classes show particularly low probabilities.\relax }{figure.caption.25}{}}
\@writefile{toc}{\contentsline {subsection}{\numberline {6.3}Object recognition through a mobile application}{30}{subsection.6.3}}
\@writefile{lof}{\contentsline {figure}{\numberline {19}{\ignorespaces Screenshots from the application.\relax }}{30}{figure.caption.26}}
\newlabel{screenshot}{{19}{30}{Screenshots from the application.\relax }{figure.caption.26}{}}
\@writefile{toc}{\contentsline {section}{\numberline {7}Conclusion and Perspectives}{30}{section.7}}
\newlabel{conclusion}{{7}{30}{Conclusion and Perspectives}{section.7}{}}
\@writefile{toc}{\contentsline {section}{Appendices}{31}{section*.27}}
\@writefile{toc}{\contentsline {section}{\numberline {A}RotationNet}{31}{Appendix.1.A}}
\newlabel{scores_view}{{8}{32}{RotationNet}{equation.1.A.8}{}}
\@writefile{toc}{\contentsline {part}{III\hspace  {1em}The internship in the process of construction of the professional project}{34}{part.3}}
\bibdata{bibliography}
\bibcite{annualreport}{1}
\bibcite{tombari2010unique}{2}
\bibcite{han2018seqviews2seqlabels}{3}
\bibcite{qi2017pointnet}{4}
\bibcite{qi2017pointnet++}{5}
\bibcite{su2015multi}{6}
\@writefile{toc}{\contentsline {section}{\numberline {1}First contact with the R\&D sector}{35}{section.1}}
\@writefile{toc}{\contentsline {section}{References}{35}{section.1}}
\bibcite{deng2009imagenet}{7}
\bibcite{kanezaki2016rotationnet}{8}
\bibcite{maturana2015voxnet}{9}
\bibcite{wu2016learning}{10}
\bibcite{wang2017cnn}{11}
\bibcite{sfikas2018ensemble}{12}
\bibcite{brock2016generative}{13}
\bibcite{su2018deeper}{14}
\bibcite{wang2017dominant}{15}
\bibcite{li2018so}{16}
\bibcite{klokov2017escape}{17}
\bibcite{ben20173d}{18}
\bibcite{qi2016volumetric}{19}
\bibcite{dominguez2018general}{20}
\bibcite{shen2018mining}{21}
\bibcite{hegde2016fusionnet}{22}
\bibcite{sfikas2017exploiting}{23}
\bibcite{johns2016pairwise}{24}
\bibcite{ren20173d}{25}
\bibcite{zaheer2017deep}{26}
\bibcite{ravanbakhsh2016deep}{27}
\bibcite{zanuttigh2017deep}{28}
\bibcite{chawla2002smote}{29}
\bibcite{wong2016understanding}{30}
\bibcite{tomek1976two}{31}
\bibcite{muhlenbach2004identifying}{32}
\bibcite{hornik1991approximation}{33}
\bibcite{krogh1992simple}{34}
\bibcite{srivastava2014dropout}{35}
\bibcite{ioffe2015batch}{36}
\bibcite{goodfellow2016deep}{37}
\bibcite{hoffer2015deep}{38}
\bibcite{schroff2015facenet}{39}
\bibcite{krizhevsky2012imagenet}{40}
\bibstyle{ieeetr}
